%YAML 1.1
%TAG !u! tag:unity3d.com,2011:
--- !u!114 &11400000
MonoBehaviour:
  m_ObjectHideFlags: 0
  m_CorrespondingSourceObject: {fileID: 0}
  m_PrefabInstance: {fileID: 0}
  m_PrefabAsset: {fileID: 0}
  m_GameObject: {fileID: 0}
  m_Enabled: 1
  m_EditorHideFlags: 0
  m_Script: {fileID: 11500000, guid: 94b6d673937ddb547b50f2aa3b99d3d3, type: 3}
  m_Name: Soldier
  m_EditorClassIdentifier: 
  tier: 1
  name: Soldier
  description: w
  special: We got pare city to BURN!
  artwork: {fileID: 21300000, guid: 6bca54e15f962ab47b78e3971bc5d4cb, type: 3}
  MoneyRequire: 80
  attackStat: 7
  speechBank:
  - '"SIR"'
  - '"Attention!"'
  - We got pare city to BURN!
