%YAML 1.1
%TAG !u! tag:unity3d.com,2011:
--- !u!114 &11400000
MonoBehaviour:
  m_ObjectHideFlags: 0
  m_CorrespondingSourceObject: {fileID: 0}
  m_PrefabInstance: {fileID: 0}
  m_PrefabAsset: {fileID: 0}
  m_GameObject: {fileID: 0}
  m_Enabled: 1
  m_EditorHideFlags: 0
  m_Script: {fileID: 11500000, guid: 5dd89ee295131b34e99b9030f6ac8a94, type: 3}
  m_Name: Farming
  m_EditorClassIdentifier: 
  tier: 0
  name: Farming
  description: 
  special: 
  artwork: {fileID: 21300000, guid: e169b24965c444748a7e4ccd3f607369, type: 3}
  reward: 60
  timeConsume: 5
  requireAttack: 5
  artifactReward: 0
  artifactChance: 0
